{
  "log": {
    "version": "1.2",
    "creator": {
      "name": "WebInspector",
      "version": "537.36"
    },
    "pages": [
      {
        "startedDateTime": "2019-02-22T10:45:15.348Z",
        "id": "page_1",
        "title": "http://databases.lrpv.gov.lv/databases/lv/trademark/search?regnroperation=BEGINS&regnr=&appnrboolop=AND&appnroperation=BEGINS&appnr=&verbboolop=AND&verboperation=CONTAINS&verb=daiss&applicantboolop=OR&applicantoperation=CONTAINS&applicant=daiss&representativeboolop=AND&representativeoperation=CONTAINS&representative=&nicaboolop=AND&nica=&viennaboolop=AND&vienna=&termsboolop=AND&terms=&typeboolop=AND&type=&groupboolop=AND&group=1&orderby=applicationnumberorderasc&pagesize=10&showbasket=false",
        "pageTimings": {
          "onContentLoad": 2808.884999998554,
          "onLoad": 4156.754999999976
        }
      }
    ],
    "entries": [
      {
        "startedDateTime": "2019-02-22T10:45:15.347Z",
        "time": 2192.785000000084,
        "request": {
          "method": "GET",
          "url": "http://databases.lrpv.gov.lv/databases/lv/trademark/search?regnroperation=BEGINS&regnr=&appnrboolop=AND&appnroperation=BEGINS&appnr=&verbboolop=AND&verboperation=CONTAINS&verb=daiss&applicantboolop=OR&applicantoperation=CONTAINS&applicant=daiss&representativeboolop=AND&representativeoperation=CONTAINS&representative=&nicaboolop=AND&nica=&viennaboolop=AND&vienna=&termsboolop=AND&terms=&typeboolop=AND&type=&groupboolop=AND&group=1&orderby=applicationnumberorderasc&pagesize=10&showbasket=false",
          "httpVersion": "HTTP/1.1",
          "headers": [
            {
              "name": "Host",
              "value": "databases.lrpv.gov.lv"
            },
            {
              "name": "Connection",
              "value": "keep-alive"
            },
            {
              "name": "Pragma",
              "value": "no-cache"
            },
            {
              "name": "Cache-Control",
              "value": "no-cache"
            },
            {
              "name": "Upgrade-Insecure-Requests",
              "value": "1"
            },
            {
              "name": "User-Agent",
              "value": "Mozilla/5.0 (Windows NT 6.3; Win64; x64) AppleWebKit/537.36 (KHTML, like Gecko) Chrome/72.0.3626.119 Safari/537.36"
            },
            {
              "name": "Accept",
              "value": "text/html,application/xhtml+xml,application/xml;q=0.9,image/webp,image/apng,*/*;q=0.8"
            },
            {
              "name": "Referer",
              "value": "http://databases.lrpv.gov.lv/databases/lv/trademark/search"
            },
            {
              "name": "Accept-Encoding",
              "value": "gzip, deflate"
            },
            {
              "name": "Accept-Language",
              "value": "ru-RU,ru;q=0.9,en-US;q=0.8,en;q=0.7,zh;q=0.6,zh-HK;q=0.5,zh-TW;q=0.4,zh-CN;q=0.3,ko;q=0.2"
            },
            {
              "name": "Cookie",
              "value": "ASP.NET_SessionId=c4vdr03addqzhthxqkal0sav"
            }
          ],
          "queryString": [
            {
              "name": "regnroperation",
              "value": "BEGINS"
            },
            {
              "name": "regnr",
              "value": ""
            },
            {
              "name": "appnrboolop",
              "value": "AND"
            },
            {
              "name": "appnroperation",
              "value": "BEGINS"
            },
            {
              "name": "appnr",
              "value": ""
            },
            {
              "name": "verbboolop",
              "value": "AND"
            },
            {
              "name": "verboperation",
              "value": "CONTAINS"
            },
            {
              "name": "verb",
              "value": "daiss"
            },
            {
              "name": "applicantboolop",
              "value": "OR"
            },
            {
              "name": "applicantoperation",
              "value": "CONTAINS"
            },
            {
              "name": "applicant",
              "value": "daiss"
            },
            {
              "name": "representativeboolop",
              "value": "AND"
            },
            {
              "name": "representativeoperation",
              "value": "CONTAINS"
            },
            {
              "name": "representative",
              "value": ""
            },
            {
              "name": "nicaboolop",
              "value": "AND"
            },
            {
              "name": "nica",
              "value": ""
            },
            {
              "name": "viennaboolop",
              "value": "AND"
            },
            {
              "name": "vienna",
              "value": ""
            },
            {
              "name": "termsboolop",
              "value": "AND"
            },
            {
              "name": "terms",
              "value": ""
            },
            {
              "name": "typeboolop",
              "value": "AND"
            },
            {
              "name": "type",
              "value": ""
            },
            {
              "name": "groupboolop",
              "value": "AND"
            },
            {
              "name": "group",
              "value": "1"
            },
            {
              "name": "orderby",
              "value": "applicationnumberorderasc"
            },
            {
              "name": "pagesize",
              "value": "10"
            },
            {
              "name": "showbasket",
              "value": "false"
            }
          ],
          "cookies": [
            {
              "name": "ASP.NET_SessionId",
              "value": "c4vdr03addqzhthxqkal0sav",
              "expires": null,
              "httpOnly": false,
              "secure": false
            }
          ],
          "headersSize": 1092,
          "bodySize": 0
        },
        "response": {
          "status": 200,
          "statusText": "OK",
          "httpVersion": "HTTP/1.1",
          "headers": [
            {
              "name": "Cache-Control",
              "value": "private"
            },
            {
              "name": "Content-Type",
              "value": "text/html; charset=utf-8"
            },
            {
              "name": "Server",
              "value": "Microsoft-IIS/8.5"
            },
            {
              "name": "X-AspNetMvc-Version",
              "value": "5.2"
            },
            {
              "name": "X-AspNet-Version",
              "value": "4.0.30319"
            },
            {
              "name": "X-Powered-By",
              "value": "ASP.NET"
            },
            {
              "name": "Date",
              "value": "Fri, 22 Feb 2019 10:45:16 GMT"
            },
            {
              "name": "Content-Length",
              "value": "16177"
            }
          ],
          "cookies": [],
          "content": {
            "size": 16177,
            "mimeType": "text/html",
            "compression": 0
          },
          "redirectURL": "",
          "headersSize": 248,
          "bodySize": 16177,
          "_transferSize": 16425
        },
        "cache": {},
        "timings": {
          "blocked": 1.8380000024926848,
          "dns": 0.31999999999999995,
          "ssl": -1,
          "connect": 120.354,
          "send": 1.1839999999999975,
          "wait": 2068.2449999992673,
          "receive": 0.8439999983238522,
          "_blocked_queueing": 1.0390000024926849
        },
        "serverIPAddress": "212.70.163.239",
        "_initiator": {
          "type": "other"
        },
        "_priority": "VeryHigh",
        "_resourceType": "document",
        "connection": "85509",
        "pageref": "page_1"
      }
    ]
  }
}